^D:\USERS\1830122\DOCUMENTS\PROGAVANCER\TIC-TAC-TOE\SDL\BOARD.CPP
/c /ZI /JMC /nologo /W3 /WX- /diagnostics:classic /sdl /Od /Oy- /D _MBCS /Gm- /EHsc /RTC1 /MDd /GS /fp:precise /permissive- /Zc:wchar_t /Zc:forScope /Zc:inline /Fo"DEBUG\\" /Fd"DEBUG\VC141.PDB" /Gd /TP /analyze- /FC D:\USERS\1830122\DOCUMENTS\PROGAVANCER\TIC-TAC-TOE\SDL\BOARD.CPP
^D:\USERS\1830122\DOCUMENTS\PROGAVANCER\TIC-TAC-TOE\SDL\GAME.CPP
/c /ZI /JMC /nologo /W3 /WX- /diagnostics:classic /sdl /Od /Oy- /D _MBCS /Gm- /EHsc /RTC1 /MDd /GS /fp:precise /permissive- /Zc:wchar_t /Zc:forScope /Zc:inline /Fo"DEBUG\\" /Fd"DEBUG\VC141.PDB" /Gd /TP /analyze- /FC D:\USERS\1830122\DOCUMENTS\PROGAVANCER\TIC-TAC-TOE\SDL\GAME.CPP
^D:\USERS\1830122\DOCUMENTS\PROGAVANCER\TIC-TAC-TOE\SDL\MAIN.CPP
/c /ZI /JMC /nologo /W3 /WX- /diagnostics:classic /sdl /Od /Oy- /D _MBCS /Gm- /EHsc /RTC1 /MDd /GS /fp:precise /permissive- /Zc:wchar_t /Zc:forScope /Zc:inline /Fo"DEBUG\\" /Fd"DEBUG\VC141.PDB" /Gd /TP /analyze- /FC D:\USERS\1830122\DOCUMENTS\PROGAVANCER\TIC-TAC-TOE\SDL\MAIN.CPP
^D:\USERS\1830122\DOCUMENTS\PROGAVANCER\TIC-TAC-TOE\SDL\O.CPP
/c /ZI /JMC /nologo /W3 /WX- /diagnostics:classic /sdl /Od /Oy- /D _MBCS /Gm- /EHsc /RTC1 /MDd /GS /fp:precise /permissive- /Zc:wchar_t /Zc:forScope /Zc:inline /Fo"DEBUG\\" /Fd"DEBUG\VC141.PDB" /Gd /TP /analyze- /FC D:\USERS\1830122\DOCUMENTS\PROGAVANCER\TIC-TAC-TOE\SDL\O.CPP
^D:\USERS\1830122\DOCUMENTS\PROGAVANCER\TIC-TAC-TOE\SDL\TILE.CPP
/c /ZI /JMC /nologo /W3 /WX- /diagnostics:classic /sdl /Od /Oy- /D _MBCS /Gm- /EHsc /RTC1 /MDd /GS /fp:precise /permissive- /Zc:wchar_t /Zc:forScope /Zc:inline /Fo"DEBUG\\" /Fd"DEBUG\VC141.PDB" /Gd /TP /analyze- /FC D:\USERS\1830122\DOCUMENTS\PROGAVANCER\TIC-TAC-TOE\SDL\TILE.CPP
^D:\USERS\1830122\DOCUMENTS\PROGAVANCER\TIC-TAC-TOE\SDL\TOKEN.CPP
/c /ZI /JMC /nologo /W3 /WX- /diagnostics:classic /sdl /Od /Oy- /D _MBCS /Gm- /EHsc /RTC1 /MDd /GS /fp:precise /permissive- /Zc:wchar_t /Zc:forScope /Zc:inline /Fo"DEBUG\\" /Fd"DEBUG\VC141.PDB" /Gd /TP /analyze- /FC D:\USERS\1830122\DOCUMENTS\PROGAVANCER\TIC-TAC-TOE\SDL\TOKEN.CPP
^D:\USERS\1830122\DOCUMENTS\PROGAVANCER\TIC-TAC-TOE\SDL\UTILS.CPP
/c /ZI /JMC /nologo /W3 /WX- /diagnostics:classic /sdl /Od /Oy- /D _MBCS /Gm- /EHsc /RTC1 /MDd /GS /fp:precise /permissive- /Zc:wchar_t /Zc:forScope /Zc:inline /Fo"DEBUG\\" /Fd"DEBUG\VC141.PDB" /Gd /TP /analyze- /FC D:\USERS\1830122\DOCUMENTS\PROGAVANCER\TIC-TAC-TOE\SDL\UTILS.CPP
^D:\USERS\1830122\DOCUMENTS\PROGAVANCER\TIC-TAC-TOE\SDL\X.CPP
/c /ZI /JMC /nologo /W3 /WX- /diagnostics:classic /sdl /Od /Oy- /D _MBCS /Gm- /EHsc /RTC1 /MDd /GS /fp:precise /permissive- /Zc:wchar_t /Zc:forScope /Zc:inline /Fo"DEBUG\\" /Fd"DEBUG\VC141.PDB" /Gd /TP /analyze- /FC D:\USERS\1830122\DOCUMENTS\PROGAVANCER\TIC-TAC-TOE\SDL\X.CPP
