^D:\USERS\1830122\DOCUMENTS\PROGAVANCER\TIC-TAC-TOE\SDL\DEBUG\BOARD.OBJ|D:\USERS\1830122\DOCUMENTS\PROGAVANCER\TIC-TAC-TOE\SDL\DEBUG\GAME.OBJ|D:\USERS\1830122\DOCUMENTS\PROGAVANCER\TIC-TAC-TOE\SDL\DEBUG\MAIN.OBJ|D:\USERS\1830122\DOCUMENTS\PROGAVANCER\TIC-TAC-TOE\SDL\DEBUG\O.OBJ|D:\USERS\1830122\DOCUMENTS\PROGAVANCER\TIC-TAC-TOE\SDL\DEBUG\TILE.OBJ|D:\USERS\1830122\DOCUMENTS\PROGAVANCER\TIC-TAC-TOE\SDL\DEBUG\TOKEN.OBJ|D:\USERS\1830122\DOCUMENTS\PROGAVANCER\TIC-TAC-TOE\SDL\DEBUG\UTILS.OBJ|D:\USERS\1830122\DOCUMENTS\PROGAVANCER\TIC-TAC-TOE\SDL\DEBUG\X.OBJ
D:\USERS\1830122\DOCUMENTS\PROGAVANCER\TIC-TAC-TOE\SDL\SDL2_IMAGE.LIB
D:\USERS\1830122\DOCUMENTS\PROGAVANCER\TIC-TAC-TOE\SDL\SDL2.LIB
D:\USERS\1830122\DOCUMENTS\PROGAVANCER\TIC-TAC-TOE\SDL\SDL2MAIN.LIB
C:\PROGRAM FILES (X86)\WINDOWS KITS\10\LIB\10.0.17134.0\UM\X86\KERNEL32.LIB
C:\PROGRAM FILES (X86)\WINDOWS KITS\10\LIB\10.0.17134.0\UM\X86\USER32.LIB
C:\PROGRAM FILES (X86)\WINDOWS KITS\10\LIB\10.0.17134.0\UM\X86\GDI32.LIB
C:\PROGRAM FILES (X86)\WINDOWS KITS\10\LIB\10.0.17134.0\UM\X86\WINSPOOL.LIB
C:\PROGRAM FILES (X86)\WINDOWS KITS\10\LIB\10.0.17134.0\UM\X86\COMDLG32.LIB
C:\PROGRAM FILES (X86)\WINDOWS KITS\10\LIB\10.0.17134.0\UM\X86\ADVAPI32.LIB
C:\PROGRAM FILES (X86)\WINDOWS KITS\10\LIB\10.0.17134.0\UM\X86\SHELL32.LIB
C:\PROGRAM FILES (X86)\WINDOWS KITS\10\LIB\10.0.17134.0\UM\X86\OLE32.LIB
C:\PROGRAM FILES (X86)\WINDOWS KITS\10\LIB\10.0.17134.0\UM\X86\OLEAUT32.LIB
C:\PROGRAM FILES (X86)\WINDOWS KITS\10\LIB\10.0.17134.0\UM\X86\UUID.LIB
C:\PROGRAM FILES (X86)\WINDOWS KITS\10\LIB\10.0.17134.0\UM\X86\ODBC32.LIB
C:\PROGRAM FILES (X86)\WINDOWS KITS\10\LIB\10.0.17134.0\UM\X86\ODBCCP32.LIB
D:\USERS\1830122\DOCUMENTS\PROGAVANCER\TIC-TAC-TOE\SDL\DEBUG\BOARD.OBJ
D:\USERS\1830122\DOCUMENTS\PROGAVANCER\TIC-TAC-TOE\SDL\DEBUG\GAME.OBJ
D:\USERS\1830122\DOCUMENTS\PROGAVANCER\TIC-TAC-TOE\SDL\DEBUG\MAIN.OBJ
D:\USERS\1830122\DOCUMENTS\PROGAVANCER\TIC-TAC-TOE\SDL\DEBUG\O.OBJ
D:\USERS\1830122\DOCUMENTS\PROGAVANCER\TIC-TAC-TOE\SDL\DEBUG\TILE.OBJ
D:\USERS\1830122\DOCUMENTS\PROGAVANCER\TIC-TAC-TOE\SDL\DEBUG\TOKEN.OBJ
D:\USERS\1830122\DOCUMENTS\PROGAVANCER\TIC-TAC-TOE\SDL\DEBUG\UTILS.OBJ
D:\USERS\1830122\DOCUMENTS\PROGAVANCER\TIC-TAC-TOE\SDL\DEBUG\X.OBJ
C:\WINDOWS\GLOBALIZATION\SORTING\SORTDEFAULT.NLS
C:\PROGRAM FILES (X86)\MICROSOFT VISUAL STUDIO\2017\COMMUNITY\VC\TOOLS\MSVC\14.15.26726\BIN\HOSTX86\X86\LINK.EXE
C:\PROGRAM FILES (X86)\MICROSOFT VISUAL STUDIO\2017\COMMUNITY\VC\TOOLS\MSVC\14.15.26726\LIB\X86\MSVCPRTD.LIB
C:\PROGRAM FILES (X86)\MICROSOFT VISUAL STUDIO\2017\COMMUNITY\VC\TOOLS\MSVC\14.15.26726\LIB\X86\MSVCRTD.LIB
C:\PROGRAM FILES (X86)\MICROSOFT VISUAL STUDIO\2017\COMMUNITY\VC\TOOLS\MSVC\14.15.26726\LIB\X86\OLDNAMES.LIB
C:\PROGRAM FILES (X86)\MICROSOFT VISUAL STUDIO\2017\COMMUNITY\VC\TOOLS\MSVC\14.15.26726\LIB\X86\VCRUNTIMED.LIB
C:\PROGRAM FILES (X86)\WINDOWS KITS\10\LIB\10.0.17134.0\UCRT\X86\UCRTD.LIB
C:\PROGRAM FILES (X86)\WINDOWS KITS\10\BIN\10.0.17134.0\X86\RC.EXE
C:\PROGRAM FILES (X86)\MICROSOFT VISUAL STUDIO\2017\COMMUNITY\VC\TOOLS\MSVC\14.15.26726\BIN\HOSTX86\X86\CVTRES.EXE
C:\PROGRAM FILES (X86)\MICROSOFT VISUAL STUDIO\2017\COMMUNITY\VC\TOOLS\MSVC\14.15.26726\BIN\HOSTX86\X86\MSPDBSRV.EXE
C:\WINDOWS\SYSTEM32\TZRES.DLL
